<?xml version="1.0" encoding="UTF-8"?>
<svg width="66px" height="49px" viewBox="0 0 66 49" version="1.1" xmlns="http://www.w3.org/2000/svg" xmlns:xlink="http://www.w3.org/1999/xlink">
    <!-- Generator: Sketch 53 (72520) - https://sketchapp.com -->
    <title>Logo</title>
    <desc>Created with Sketch.</desc>
    <defs>
        <polygon id="path-1" points="0.291058794 0.135877301 38.3653645 0.135877301 38.3653645 29.0657504 0.291058794 29.0657504"></polygon>
        <polygon id="path-3" points="0 48.5635092 65.8947 48.5635092 65.8947 0 0 0"></polygon>
    </defs>
    <g id="Homepage" stroke="none" stroke-width="1" fill="none" fill-rule="evenodd">
        <g id="Homepage@2x" transform="translate(-120.000000, -2514.000000)">
            <g id="Footer" transform="translate(0.000000, 2473.000000)">
                <g id="Main-Navigation" transform="translate(120.000000, 41.000000)">
                    <g id="Logo">
                        <path d="M48.33531,16.9833098 C46.79601,17.485635 45.53121,18.5699479 44.79741,20.0158988 C44.06301,21.4615491 43.93371,23.1239417 44.43531,24.6672914 C44.93691,26.2097393 46.01811,27.4762239 47.46111,28.2115245 C48.90441,28.9483282 50.56371,29.077592 52.10361,28.5752669 C53.64261,28.0726411 54.90711,26.9889294 55.64121,25.5426779 C56.37531,24.0970276 56.50431,22.4340337 56.00361,20.8915859 C55.50171,19.3482362 54.42021,18.0814509 52.97721,17.3455491 C51.53361,16.6102485 49.87461,16.4803834 48.33531,16.9833098" id="Fill-1" fill="#FFFFFF"></path>
                        <g id="Group-5" transform="translate(9.300000, 0.164736)">
                            <mask id="mask-2" fill="white">
                                <use xlink:href="#path-1"></use>
                            </mask>
                            <g id="Clip-4"></g>
                            <path d="M18.86967,18.5733748 C18.53037,19.4935528 18.19617,20.4164362 17.91147,21.3555528 C17.46267,22.8363748 17.60307,24.4176018 18.30267,25.7962153 C19.01907,27.2069945 20.26407,28.2738718 21.76647,28.7647736 C22.50177,29.0046632 23.27697,29.0894362 24.04707,29.0437429 C24.58677,29.0124791 25.12287,28.9231969 25.63677,28.7557552 C27.14427,28.2642521 28.38297,27.2021847 29.10147,25.7871969 C29.80107,24.4079822 29.94027,22.8246509 29.49207,21.3462337 C29.20737,20.406516 28.87347,19.4842337 28.53327,18.5637552 C27.58917,16.0079393 28.94127,13.3457061 31.55847,12.6049945 C32.50107,12.3386509 33.44127,12.0653933 34.36647,11.7422337 C35.82567,11.2341969 37.01787,10.1904669 37.71717,8.81065092 C38.43447,7.39987178 38.56167,5.76273067 38.07267,4.25695767 C37.58127,2.74577362 36.52257,1.5048411 35.10867,0.783969939 C33.70017,0.066706135 32.06577,-0.0610546012 30.56337,0.429546626 C29.05557,0.921049693 27.81687,1.98311718 27.09777,3.39900675 C26.39817,4.7767184 26.25957,6.35944847 26.70777,7.8390681 C26.99217,8.77848528 27.32637,9.70046687 27.66627,10.6215466 C30.58647,18.5255773 16.81497,18.5433135 19.73637,10.6311663 C20.07597,9.7100865 20.40957,8.78840552 20.69397,7.84838712 C21.14277,6.36846687 21.00267,4.78693926 20.30247,3.40832577 C19.58637,1.99664479 18.34227,0.930068098 16.83867,0.440068098 C16.11207,0.203184663 15.34437,0.114503681 14.58147,0.159295092 C14.05107,0.190258282 13.52577,0.280442331 13.01967,0.446080368 C11.51127,0.937884049 10.27347,1.99904969 9.55437,3.4158411 C8.85537,4.79295153 8.71557,6.37628282 9.16407,7.85530123 C9.44877,8.7947184 9.78297,9.71700061 10.12257,10.6377798 C11.06637,13.1932951 9.71487,15.8564301 7.09797,16.5968411 C6.15537,16.8637859 5.21517,17.1364423 4.28907,17.4587 C2.83137,17.967338 1.63857,19.0107675 0.93867,20.3896816 C0.22227,21.8019638 0.09507,23.4379025 0.58287,24.9439761 C1.07487,26.4551601 2.13417,27.6960926 3.54777,28.4166632 C4.95687,29.1348288 6.59037,29.2625896 8.09277,28.772289 C9.60117,28.2795834 10.83957,27.2184178 11.55777,25.8022276 C12.25767,24.4248166 12.39717,22.8414853 11.94837,21.3624669 C11.66337,20.4233503 11.32977,19.5010681 10.99017,18.5799883 C8.07207,10.683473 21.78807,10.6717491 18.86967,18.5733748" id="Fill-3" fill="#FFFFFF" mask="url(#mask-2)"></path>
                        </g>
                        <polygon id="Fill-6" fill="#FFFFFF" points="0 38.3024883 1.9422 38.3024883 5.0997 43.2193227 8.2572 38.3024883 10.1994 38.3024883 10.1994 48.7010098 8.3907 48.7010098 8.3907 41.2439914 5.1144 46.1460957 5.0553 46.1460957 1.8087 41.2734515 1.8087 48.7010098 0 48.7010098"></polygon>
                        <polygon id="Fill-8" fill="#FFFFFF" points="15.09126 38.3024883 22.77036 38.3024883 22.77036 39.9513534 16.89996 39.9513534 16.89996 42.6250098 22.10346 42.6250098 22.10346 44.2741755 16.89996 44.2741755 16.89996 47.0518442 22.84446 47.0518442 22.84446 48.7010098 15.09126 48.7010098"></polygon>
                        <polygon id="Fill-10" fill="#FFFFFF" points="27.24741 38.3024883 29.05611 38.3024883 29.05611 47.0518442 34.51131 47.0518442 34.51131 48.7010098 27.24741 48.7010098"></polygon>
                        <mask id="mask-4" fill="white">
                            <use xlink:href="#path-3"></use>
                        </mask>
                        <g id="Clip-13"></g>
                        <path d="M38.5437,48.7008896 L40.3521,48.7008896 L40.3521,40.8572822 L38.5437,40.8572822 L38.5437,48.7008896 Z M38.4696,39.6545276 L40.4115,39.6545276 L40.4115,37.9458405 L38.4696,37.9458405 L38.4696,39.6545276 Z" id="Fill-12" fill="#FFFFFF" mask="url(#mask-4)"></path>
                        <path d="M49.36539,48.8641828 C48.69339,48.8641828 48.08529,48.7676859 47.54229,48.5743914 C46.99839,48.3816982 46.53399,48.0919067 46.14849,47.7056184 C45.76299,47.3190294 45.46659,46.8413546 45.25899,46.2719926 C45.05139,45.7026307 44.94759,45.0415816 44.94759,44.2888454 L44.94759,38.3024282 L46.75659,38.3024282 L46.75659,44.2145939 C46.75659,45.1852748 46.98969,45.923281 47.45709,46.428011 C47.92389,46.9330417 48.57009,47.1858577 49.39539,47.1858577 C50.20989,47.1858577 50.85129,46.942962 51.31869,46.4580724 C51.78519,45.9728822 52.01919,45.2496061 52.01919,44.2888454 L52.01919,38.3024282 L53.82789,38.3024282 L53.82789,44.1995632 C53.82789,44.9724405 53.72139,45.6506245 53.50929,46.2350172 C53.29659,46.8191092 52.99719,47.3073055 52.61199,47.6984037 C52.22649,48.0895018 51.75939,48.3816982 51.21099,48.5743914 C50.66259,48.7676859 50.04729,48.8641828 49.36539,48.8641828" id="Fill-14" fill="#FFFFFF" mask="url(#mask-4)"></path>
                        <path d="M62.20326,48.8495129 C61.40286,48.8495129 60.63666,48.713335 59.90556,48.4409791 C59.17386,48.1683227 58.49706,47.7501693 57.87456,47.1859178 L58.97166,45.8782491 C59.47536,46.3141387 59.98446,46.6487215 60.49806,46.8807951 C61.01196,47.1140712 61.59576,47.230108 62.24766,47.230108 C62.81106,47.230108 63.25836,47.1113656 63.58956,46.873881 C63.92046,46.6360957 64.08606,46.3192491 64.08606,45.9233411 L64.08606,45.8932798 C64.08606,45.7053963 64.05396,45.5394577 63.98916,45.3957644 C63.92526,45.2523718 63.80616,45.1161939 63.63276,44.9872307 C63.45936,44.8585681 63.22116,44.7395252 62.91936,44.6307031 C62.61726,44.521881 62.22306,44.4130589 61.73766,44.3036356 C61.18296,44.1752736 60.68976,44.0291755 60.25896,43.8653411 C59.82756,43.702108 59.46636,43.5043043 59.17386,43.2713288 C58.88196,43.0389546 58.65876,42.753973 58.50516,42.4172859 C58.35126,42.0805988 58.27476,41.6744699 58.27476,41.1992 L58.27476,41.1694393 C58.27476,40.7239301 58.36296,40.3153963 58.53936,39.943838 C58.71606,39.572881 58.95846,39.2557337 59.26716,38.9932982 C59.57586,38.7308626 59.94696,38.5252429 60.38136,38.3767399 C60.81486,38.2285374 61.28916,38.1539853 61.80306,38.1539853 C62.56386,38.1539853 63.24846,38.2652123 63.85626,38.4879669 C64.46376,38.7110221 65.03466,39.0356847 65.56866,39.4613534 L64.59006,40.8423718 C64.11576,40.496065 63.64626,40.2315252 63.18186,40.0478503 C62.71716,39.8647767 62.24766,39.7733902 61.77306,39.7733902 C61.23966,39.7733902 60.82446,39.8921325 60.52806,40.1293166 C60.23166,40.3671018 60.08346,40.6592982 60.08346,41.0059055 L60.08346,41.0359669 C60.08346,41.2340712 60.11796,41.4096294 60.18726,41.5635436 C60.25686,41.7165558 60.38316,41.8551387 60.56646,41.979292 C60.74946,42.1031448 61.00236,42.218881 61.32426,42.3283043 C61.64646,42.437427 62.05476,42.5510589 62.55036,42.6698012 C63.09546,42.8086847 63.57846,42.9619975 63.99966,43.1306417 C64.42116,43.2986847 64.77006,43.5043043 65.04726,43.7468994 C65.32446,43.9897951 65.53536,44.2717706 65.67906,44.593427 C65.82246,44.9156847 65.89476,45.2893472 65.89476,45.715016 L65.89476,45.7447767 C65.89476,46.2299669 65.80386,46.6658564 65.62236,47.0521448 C65.44116,47.4381325 65.18856,47.7652 64.86546,48.0321448 C64.54206,48.2999914 64.15296,48.5029055 63.69936,48.641789 C63.24576,48.7800712 62.74656,48.8495129 62.20326,48.8495129" id="Fill-15" fill="#FFFFFF" mask="url(#mask-4)"></path>
                    </g>
                </g>
            </g>
        </g>
    </g>
</svg>